VIBRANT clinical data - merging CRFs data into wide tables
…
Note : participant 200156 is the only one not to have the shortest value of income resource included in the largest value, so we correct it manually.

Code

# crf101

pid_temp <- participants_crf[["crf101"]] |> 
  dplyr::count(pid) |> 
  dplyr::filter(n > 1) |> 
  pull(pid)

participants_crf[["crf101"]] |> 
  dplyr::filter(pid %in% pid_temp)

# A tibble: 30 × 12
   uid     pid   visit_code dfseq vdate_fixed study_day   age preferred_pronouns
   <chr>   <chr> <chr>      <dbl> <lgl>           <dbl> <int> <chr>             
 1 068200… 0682… 0000           0 FALSE             -22    32 She/Her           
 2 068200… 0682… 0010          10 FALSE               0    32 She/Her           
 3 068200… 0682… 0000           0 FALSE             -35    29 She/Her           
 4 068200… 0682… 0010          10 FALSE               0    29 She/Her           
 5 068200… 0682… 0000           0 NA                 NA    NA <NA>              
 6 068200… 0682… 0010          10 FALSE               0    29 She/Her           
 7 068200… 0682… 0000           0 FALSE            -217    19 She/Her           
 8 068200… 0682… 0010          10 FALSE               0    19 She/Her           
 9 068200… 0682… 0000           0 FALSE             -19    38 She/Her           
10 068200… 0682… 0010          10 FALSE               0    38 She/Her           
# ℹ 20 more rows
# ℹ 4 more variables: gender_identity <chr>, race <fct>, edu <fct>,
#   income_sources <fct>
…
We check the number of participants with duplicated pid values in the crf1_101 table. Some participants appear twice, with one of the entries containing no data. Therefore, we retain only the rows that contain actual data.

Code

pid_temp <- participants_crf[["crf1_101"]] |> 
  dplyr::count(pid) |> 
  dplyr::filter(n > 1) |> 
  pull(pid)

participants_crf[["crf1_101"]] |> 
  dplyr::filter(pid %in% pid_temp) |> 
  arrange(pid)

# A tibble: 26 × 18
   uid        pid   visit_code dfseq vdate_fixed study_day other_pronoun_specify
   <chr>      <chr> <chr>      <dbl> <lgl>           <dbl> <chr>                
 1 068200112… 0682… 0000           0 NA                 NA <NA>                 
 2 068200112… 0682… 0000           0 FALSE               0 <NA>                 
 3 068200178… 0682… 0000           0 NA                 NA <NA>                 
 4 068200178… 0682… 0000           0 FALSE               0 <NA>                 
 5 068200191… 0682… 0000           0 NA                 NA <NA>                 
 6 068200191… 0682… 0000           0 FALSE              -9 <NA>                 
 7 068200215… 0682… 0000           0 NA                 NA <NA>                 
 8 068200215… 0682… 0000           0 FALSE               0 <NA>                 
 9 068200218… 0682… 0000           0 NA                 NA <NA>                 
10 068200218… 0682… 0000           0 FALSE               0 <NA>                 
# ℹ 16 more rows
# ℹ 11 more variables: other_gender_specify <chr>, other_race_specify <chr>,
#   other_level_education_specify <chr>, age <int>, preferred_pronouns <chr>,
#   gender_identity <chr>, race <fct>, ethn <fct>, edu <fct>, site <chr>,
#   income_sources <chr>
…
We check the number of participants with duplicated pid values in the crf2_102 table. Some participants from MGH appear twice, with one of the entries containing no data. Therefore, we retain only the rows that contain actual data for those participants. Some participants from CAP appear twice, with one of the entries containing no data for the mothly_gross_income. Therefore, we retain only the rows that contain the annual gross income for those participants.

Code

pid_temp <- participants_crf[["crf2_102"]] |> 
  dplyr::count(pid) |> 
  dplyr::filter(n > 1) |> 
  pull(pid)

participants_crf[["crf2_102"]] |>
  dplyr::filter(pid %in% pid_temp) |> 
  arrange(pid) 

# A tibble: 30 × 19
   pid       uid          visit_code dfseq additional_income annual_gross_income
   <chr>     <chr>        <chr>      <int> <fct>             <fct>              
 1 068100009 068100009_0… 0000           0 No                $30.000 - $70,000  
 2 068100009 068100009_0… 0000           0 <NA>              <NA>               
 3 068100012 068100012_0… 0000           0 No                $30.000 - $70,000  
 4 068100012 068100012_0… 0000           0 <NA>              <NA>               
 5 068200112 068200112_0… 0000           0 <NA>              <NA>               
 6 068200112 068200112_0… 0000           0 <NA>              <NA>               
 7 068200178 068200178_0… 0000           0 <NA>              <NA>               
 8 068200178 068200178_0… 0000           0 <NA>              <NA>               
 9 068200191 068200191_0… 0000           0 <NA>              <NA>               
10 068200191 068200191_0… 0000           0 <NA>              <NA>               
# ℹ 20 more rows
# ℹ 13 more variables: primary_income <fct>, additional_income_type <fct>,
#   study_day <int>, worry_food <chr>, worry_utilities <chr>, worry_rent <chr>,
#   worry_student_loans <chr>, worry_education_fees <chr>,
#   worry_mortgage <chr>, worry_childcare <chr>, worry_medical_bills <chr>,
#   worry_none <chr>, monthly_gross_income <fct>
…
CRF 5

Code

pid_temp <- 
  participants_crf[["crf5"]] |> 
  dplyr::count(pid) |> 
  dplyr::filter(n > 1) |> 
  pull(pid)

participants_crf[["crf5"]] |>
  dplyr::filter(pid %in% pid_temp)

# A tibble: 85 × 9
   pid       no_pre_existing_cond…¹ diagnosis ongoing_enrollment ongoing_at_exit
   <chr>     <lgl>                  <chr>     <chr>              <chr>          
 1 068100010 FALSE                  Shelfish… Yes                Yes            
 2 068100010 FALSE                  Fruit al… Yes                Yes            
 3 068100010 FALSE                  Egg alle… Yes                Yes            
 4 068100010 FALSE                  Latex al… Yes                Yes            
 5 068100010 FALSE                  Asthma    Yes                Yes            
 6 068100010 FALSE                  Depressi… Yes                Yes            
 7 068100010 FALSE                  Eczema    Yes                Yes            
 8 068100011 FALSE                  Eczema    Yes                Yes            
 9 068100011 FALSE                  Asthma    Yes                Yes            
10 068100011 FALSE                  Peanut a… Yes                Yes            
# ℹ 75 more rows
# ℹ abbreviated name: ¹​no_pre_existing_condition
# ℹ 4 more variables: study_day <int>, dfseq <int>, visit_code <int>, uid <chr>
…
 [1] "068100009" "068100019" "068100053" "068100059" "068200008" "068200009"
 [7] "068200011" "068200012" "068200017" "068200037" "068200038" "068200057"
[13] "068200067" "068200087" "068200096" "068200128" "068200131" "068200148"
[19] "068200154" "068200156" "068200162" "068200169" "068200172" "068200173"
[25] "068200174" "068200179" "068200201" "068200216" "068200224" "068200255"
[31] "068200256" "068200267" "068200278" "068200279" "068200288" "068200304"
[37] "068200325" "068200327" "068200350"

Code

participants_crf[["crf6"]] |> 
  dplyr::filter(pid %in% pid_temp)

# A tibble: 78 × 25
   uid          pid   visit_code dfseq vdate_fixed study_day age   premenopausal
   <chr>        <chr> <chr>      <dbl> <lgl>           <dbl> <chr> <chr>        
 1 068100009_0… 0681… 0000           0 FALSE            -133 Yes   Yes          
 2 068100009_0… 0681… 0010          10 FALSE               0 Yes   Yes          
 3 068100019_0… 0681… 0000           0 FALSE             -19 Yes   Yes          
 4 068100019_0… 0681… 0010          10 FALSE               0 Yes   Yes          
 5 068100053_0… 0681… 0000           0 FALSE             -15 Yes   Yes          
 6 068100053_0… 0681… 0010          10 FALSE              -7 Yes   Yes          
 7 068100059_0… 0681… 0000           0 FALSE              -6 Yes   Yes          
 8 068100059_0… 0681… 0010          10 FALSE               0 Yes   Yes          
 9 068200008_0… 0682… 0000           0 FALSE             -37 Yes   Yes          
10 068200008_0… 0682… 0010          10 FALSE              -8 Yes   Yes          
# ℹ 68 more rows
# ℹ 17 more variables: abnormal_nugent_score <chr>, amesel3 <chr>,
#   hiv_uninfected <chr>, not_pregnant <chr>, on_contraceptives <chr>,
#   informed_consent <chr>, attend_study_visits <chr>,
#   history_uterine_disease <chr>, hysterectomy <chr>,
#   cervicovaginal_infection <chr>, yeast_infection <chr>,
#   vaginal_antibiotics <chr>, syphilis <chr>, …
…
We keep the values of the most recent visit.

Code

# crf7

pid_temp <- participants_crf[["crf7"]] |> 
  dplyr::count(pid) |> 
  dplyr::filter(n > 1) |> 
  pull(pid)

participants_crf[["crf7"]] |>
  dplyr::filter(pid %in% pid_temp)

# A tibble: 56 × 19
   uid         pid   visit_code dfseq current_medications history_medical_cond…¹
   <chr>       <chr> <chr>      <int> <chr>               <chr>                 
 1 068100019_… 0681… 0000           0 No                  No                    
 2 068100019_… 0681… 0010          10 No                  No                    
 3 068100053_… 0681… 0000           0 No                  No                    
 4 068100053_… 0681… 0010          10 No                  No                    
 5 068100059_… 0681… 0000           0 No                  No                    
 6 068100059_… 0681… 0010          10 No                  No                    
 7 068200008_… 0682… 0000           0 Not done            Not done              
 8 068200008_… 0682… 0010          10 No                  No                    
 9 068200011_… 0682… 0000           0 Not done            Not done              
10 068200011_… 0682… 0010          10 No                  No                    
# ℹ 46 more rows
# ℹ abbreviated name: ¹​history_medical_conditions
# ℹ 13 more variables: iud_use <chr>, probiotic_use <chr>,
#   active_covid19_infection <chr>, vaginal_cleansing <chr>, menopause <chr>,
#   testosterone_use <chr>, blood_pressure <chr>, hemoglobin <chr>,
#   covid_vaccination <chr>, breastfeeding <chr>, condition_pi_opinion <chr>,
#   meet_eligibility <chr>, study_day <int>
…
Code

participants_crf[["crf22"]] |> 
  dplyr::filter(pid %in% pid_temp)

# A tibble: 108 × 8
   uid    pid   visit_code dfseq study_day prescription_container tablets_remain
   <chr>  <chr> <chr>      <dbl>     <dbl> <chr>                           <int>
 1 06810… 0681… 1100        1100         5 Yes                                 3
 2 06810… 0681… 1200        1200        10 Yes                                 0
 3 06810… 0681… 1100        1100         6 Yes                                 5
 4 06810… 0681… 1200        1200        15 No                                 NA
 5 06820… 0682… 1100        1100         7 Yes                                 1
 6 06820… 0682… 1200        1200        15 Yes                                 0
 7 06820… 0682… 1100        1100         6 Yes                                 4
 8 06820… 0682… 1200        1200        17 No                                 NA
 9 06820… 0682… 1100        1100         7 Yes                                 1
10 06820… 0682… 1200        1200        15 Yes                                 0
# ℹ 98 more rows
# ℹ 1 more variable: metro_dose_miss <fct>
…
 [1] "068100010" "068200020" "068200061" "068200150" "068200191" "068200239"
 [7] "068200253" "068200310" "068200358" "068200361" "068200364" "068200370"
[13] "068200379" "068200438" "068200465"

Code

participants_crf[["crf23"]] |> 
  dplyr::filter(pid %in% pid_temp)

# A tibble: 30 × 12
   uid       pid   visit_code dfseq vdate_fixed study_day prescription_container
   <chr>     <chr> <chr>      <dbl> <lgl>           <dbl> <chr>                 
 1 06810001… 0681… 1100        1100 FALSE               5 Yes                   
 2 06810001… 0681… 1200        1200 FALSE              10 Yes                   
 3 06820002… 0682… 1100        1100 FALSE               6 Yes                   
 4 06820002… 0682… 1200        1200 FALSE              17 Yes                   
 5 06820006… 0682… 1100        1100 FALSE               7 Yes                   
 6 06820006… 0682… 1200        1200 FALSE              15 Yes                   
 7 06820015… 0682… 1100        1100 FALSE               6 Yes                   
 8 06820015… 0682… 1200        1200 FALSE              17 Yes                   
 9 06820019… 0682… 1100        1100 FALSE               7 Yes                   
10 06820019… 0682… 1200        1200 FALSE              15 Yes                   
# ℹ 20 more rows
# ℹ 5 more variables: tablets_remain <int>, used_applicators <chr>,
#   number_applicators <int>, n_missed_days <dbl>, product_missed_days <chr>
…
Code

participants_crf[["crf24"]] |> 
  dplyr::filter(pid %in% pid_temp)

# A tibble: 103 × 15
   uid       pid   visit_code dfseq vdate_fixed study_day accept_vaginal_inser…¹
   <fct>     <fct> <fct>      <dbl> <lgl>           <dbl>                  <int>
 1 06810000… 0681… 1200        1200 FALSE              14                      6
 2 06810000… 0681… 1500        1500 FALSE              34                      6
 3 06810000… 0681… 1200        1200 FALSE              15                      5
 4 06810000… 0681… 1500        1500 FALSE              33                      5
 5 06810001… 0681… 1200        1200 FALSE              10                      6
 6 06810001… 0681… 1500        1500 NA                 NA                     NA
 7 06810002… 0681… 1200        1200 FALSE              15                      5
 8 06810002… 0681… 1500        1500 FALSE              35                      5
 9 06810002… 0681… 1200        1200 FALSE              15                      6
10 06810002… 0681… 1500        1500 FALSE              35                      6
# ℹ 93 more rows
# ℹ abbreviated name: ¹​accept_vaginal_insert_product
# ℹ 8 more variables: comfort_insertion_procedure <int>,
#   understand_insert_procedure <int>, size_of_tablet <int>,
#   comfortable_use_applicator <int>, comfortable_insert_product <int>,
#   insert_product_daily <int>, tell_partner <fct>, partner_comfortable <fct>
…
We keep the most recent visit.

Code

pid_temp <- 
  participants_crf[["crf25"]] |> 
  dplyr::count(pid) |> 
  dplyr::filter(n > 1) |> 
  pull(pid)

participants_crf[["crf25"]] |>
  dplyr::filter(pid %in% pid_temp)

# A tibble: 88 × 11
   uid         pid   visit_code dfseq reason_missed_doses product_shorter_longer
   <fct>       <fct> <fct>      <int> <fct>               <fct>                 
 1 068100006_… 0681… 1200        1200 I did not miss dos… Okay with 7 days      
 2 068100006_… 0681… 1500        1500 I did not miss dos… Shorter               
 3 068100010_… 0681… 1200        1200 I did not miss dos… Shorter               
 4 068100010_… 0681… 1500        1500 <NA>                <NA>                  
 5 068100011_… 0681… 1200        1200 I did not miss dos… Longer                
 6 068100011_… 0681… 1500        1500 I did not miss dos… Longer                
 7 068100040_… 0681… 1200        1200 I did not miss dos… Shorter               
 8 068100040_… 0681… 1500        1500 I did not miss dos… Shorter               
 9 068100049_… 0681… 1200        1200 I did not miss dos… Shorter               
10 068100049_… 0681… 1500        1500 I did not miss dos… Shorter               
# ℹ 78 more rows
# ℹ 5 more variables: use_product_again <fct>, use_applicator_again <fct>,
#   product_benefit_you <fct>, product_shorter_longer_how_many <fct>,
#   study_day <int>
…
 [1] "068100049" "068100052" "068100053" "068100058" "068100059" "068100060"
 [7] "068200008" "068200011" "068200012" "068200017" "068200037" "068200038"
[13] "068200057" "068200085" "068200148" "068200214" "068200216" "068200397"

Code

participants_crf[["crf28"]] |> 
  dplyr::filter(pid %in% pid_temp)

# A tibble: 36 × 11
   uid       pid   visit_code dfseq vdate_fixed study_day other_contraceptive_…¹
   <chr>     <chr> <chr>      <dbl> <lgl>           <dbl> <chr>                 
 1 06810004… 0681… 0000           0 TRUE              -15 <NA>                  
 2 06810004… 0681… 1000        1000 FALSE               0 <NA>                  
 3 06810005… 0681… 0000           0 FALSE             -15 <NA>                  
 4 06810005… 0681… 1000        1000 FALSE               0 <NA>                  
 5 06810005… 0681… 0000           0 FALSE             -15 <NA>                  
 6 06810005… 0681… 0010          10 FALSE              -7 <NA>                  
 7 06810005… 0681… 0000           0 FALSE              -7 <NA>                  
 8 06810005… 0681… 1000        1000 FALSE               0 <NA>                  
 9 06810005… 0681… 0000           0 FALSE              -6 <NA>                  
10 06810005… 0681… 0010          10 FALSE               0 <NA>                  
# ℹ 26 more rows
# ℹ abbreviated name: ¹​other_contraceptive_specify
# ℹ 4 more variables: contraception_method <chr>, contraceptive_switch <chr>,
#   participant_contraceptive_switch <chr>, participant_eligible <chr>
…
